module gitlab.com/beabys/go-template

go 1.23.0

require (
	github.com/Masterminds/squirrel v1.5.4
	github.com/getkin/kin-openapi v0.128.0
	github.com/go-chi/chi/v5 v5.1.0
	github.com/go-chi/cors v1.2.1
	github.com/go-redis/redis v6.15.9+incompatible
	github.com/go-sql-driver/mysql v1.8.1
	github.com/grpc-ecosystem/go-grpc-middleware v1.4.0
	github.com/grpc-ecosystem/go-grpc-prometheus v1.2.0
	github.com/jmoiron/sqlx v1.4.0
	github.com/prometheus/client_golang v1.20.5
	github.com/stretchr/testify v1.9.0
	gitlab.com/beabys/ayotl v0.0.11
	go.uber.org/zap v1.27.0
	golang.org/x/sync v0.9.0
	google.golang.org/grpc v1.68.0
	google.golang.org/protobuf v1.35.1
	gotest.tools v2.2.0+incompatible
)

require (
	filippo.io/edwards25519 v1.1.0 // indirect
	github.com/beorn7/perks v1.0.1 // indirect
	github.com/cespare/xxhash/v2 v2.3.0 // indirect
	github.com/davecgh/go-spew v1.1.2-0.20180830191138-d8f796af33cc // indirect
	github.com/fsnotify/fsnotify v1.7.0 // indirect
	github.com/go-openapi/jsonpointer v0.21.0 // indirect
	github.com/go-openapi/swag v0.23.0 // indirect
	github.com/golang/protobuf v1.5.4 // indirect
	github.com/google/go-cmp v0.6.0 // indirect
	github.com/invopop/yaml v0.3.1 // indirect
	github.com/josharian/intern v1.0.0 // indirect
	github.com/klauspost/compress v1.17.11 // indirect
	github.com/lann/builder v0.0.0-20180802200727-47ae307949d0 // indirect
	github.com/lann/ps v0.0.0-20150810152359-62de8c46ede0 // indirect
	github.com/mailru/easyjson v0.7.7 // indirect
	github.com/mitchellh/mapstructure v1.5.0 // indirect
	github.com/mohae/deepcopy v0.0.0-20170929034955-c48cc78d4826 // indirect
	github.com/munnerz/goautoneg v0.0.0-20191010083416-a7dc8b61c822 // indirect
	github.com/nxadm/tail v1.4.11 // indirect
	github.com/onsi/ginkgo v1.16.5 // indirect
	github.com/onsi/gomega v1.32.0 // indirect
	github.com/perimeterx/marshmallow v1.1.5 // indirect
	github.com/pkg/errors v0.9.1 // indirect
	github.com/pmezard/go-difflib v1.0.1-0.20181226105442-5d4384ee4fb2 // indirect
	github.com/prometheus/client_model v0.6.1 // indirect
	github.com/prometheus/common v0.60.1 // indirect
	github.com/prometheus/procfs v0.15.1 // indirect
	github.com/spf13/cast v1.7.0 // indirect
	github.com/stretchr/objx v0.5.2 // indirect
	go.uber.org/multierr v1.11.0 // indirect
	golang.org/x/net v0.31.0 // indirect
	golang.org/x/sys v0.27.0 // indirect
	golang.org/x/text v0.20.0 // indirect
	google.golang.org/genproto/googleapis/rpc v0.0.0-20241104194629-dd2ea8efbc28 // indirect
	gopkg.in/yaml.v3 v3.0.1 // indirect
)
